%YAML 1.1
%TAG !u! tag:unity3d.com,2011:
--- !u!1 &6337419717829874459
GameObject:
  m_ObjectHideFlags: 0
  m_CorrespondingSourceObject: {fileID: 0}
  m_PrefabInstance: {fileID: 0}
  m_PrefabAsset: {fileID: 0}
  serializedVersion: 6
  m_Component:
  - component: {fileID: 6337419717829874458}
  m_Layer: 5
  m_Name: Signs Panel
  m_TagString: Untagged
  m_Icon: {fileID: 0}
  m_NavMeshLayer: 0
  m_StaticEditorFlags: 0
  m_IsActive: 1
--- !u!224 &6337419717829874458
RectTransform:
  m_ObjectHideFlags: 0
  m_CorrespondingSourceObject: {fileID: 0}
  m_PrefabInstance: {fileID: 0}
  m_PrefabAsset: {fileID: 0}
  m_GameObject: {fileID: 6337419717829874459}
  m_LocalRotation: {x: 0, y: 0, z: 0, w: 1}
  m_LocalPosition: {x: 0, y: 0, z: 0}
  m_LocalScale: {x: 1, y: 1, z: 1}
  m_Children:
  - {fileID: 2318889576749534521}
  - {fileID: 2318889577272650049}
  m_Father: {fileID: 0}
  m_RootOrder: 0
  m_LocalEulerAnglesHint: {x: 0, y: 0, z: 0}
  m_AnchorMin: {x: 0, y: 0}
  m_AnchorMax: {x: 1, y: 0}
  m_AnchoredPosition: {x: 0, y: 0}
  m_SizeDelta: {x: 0, y: 300}
  m_Pivot: {x: 0.5, y: 0}
--- !u!1001 &6337419718258542589
PrefabInstance:
  m_ObjectHideFlags: 0
  serializedVersion: 2
  m_Modification:
    m_TransformParent: {fileID: 6337419717829874458}
    m_Modifications:
    - target: {fileID: 1737801898726932264, guid: fca891f7569244841a29511288b4185a,
        type: 3}
      propertyPath: sprite
      value: 
      objectReference: {fileID: 21300000, guid: efc591f5fe7ea86479c0111c9797f2bb,
        type: 3}
    - target: {fileID: 1737801898726932264, guid: fca891f7569244841a29511288b4185a,
        type: 3}
      propertyPath: direction
      value: 1
      objectReference: {fileID: 0}
    - target: {fileID: 7640961926292896570, guid: fca891f7569244841a29511288b4185a,
        type: 3}
      propertyPath: m_Camera
      value: 
      objectReference: {fileID: 0}
    - target: {fileID: 8637148036513417924, guid: fca891f7569244841a29511288b4185a,
        type: 3}
      propertyPath: m_LocalPosition.x
      value: 0
      objectReference: {fileID: 0}
    - target: {fileID: 8637148036513417924, guid: fca891f7569244841a29511288b4185a,
        type: 3}
      propertyPath: m_LocalPosition.y
      value: 0
      objectReference: {fileID: 0}
    - target: {fileID: 8637148036513417924, guid: fca891f7569244841a29511288b4185a,
        type: 3}
      propertyPath: m_LocalPosition.z
      value: 0
      objectReference: {fileID: 0}
    - target: {fileID: 8637148036513417924, guid: fca891f7569244841a29511288b4185a,
        type: 3}
      propertyPath: m_LocalRotation.x
      value: 0
      objectReference: {fileID: 0}
    - target: {fileID: 8637148036513417924, guid: fca891f7569244841a29511288b4185a,
        type: 3}
      propertyPath: m_LocalRotation.y
      value: 0
      objectReference: {fileID: 0}
    - target: {fileID: 8637148036513417924, guid: fca891f7569244841a29511288b4185a,
        type: 3}
      propertyPath: m_LocalRotation.z
      value: 0
      objectReference: {fileID: 0}
    - target: {fileID: 8637148036513417924, guid: fca891f7569244841a29511288b4185a,
        type: 3}
      propertyPath: m_LocalRotation.w
      value: 1
      objectReference: {fileID: 0}
    - target: {fileID: 8637148036513417924, guid: fca891f7569244841a29511288b4185a,
        type: 3}
      propertyPath: m_RootOrder
      value: 0
      objectReference: {fileID: 0}
    - target: {fileID: 8637148036513417924, guid: fca891f7569244841a29511288b4185a,
        type: 3}
      propertyPath: m_LocalEulerAnglesHint.x
      value: 0
      objectReference: {fileID: 0}
    - target: {fileID: 8637148036513417924, guid: fca891f7569244841a29511288b4185a,
        type: 3}
      propertyPath: m_LocalEulerAnglesHint.y
      value: 0
      objectReference: {fileID: 0}
    - target: {fileID: 8637148036513417924, guid: fca891f7569244841a29511288b4185a,
        type: 3}
      propertyPath: m_LocalEulerAnglesHint.z
      value: 0
      objectReference: {fileID: 0}
    - target: {fileID: 8637148036513417924, guid: fca891f7569244841a29511288b4185a,
        type: 3}
      propertyPath: m_AnchoredPosition.x
      value: 0
      objectReference: {fileID: 0}
    - target: {fileID: 8637148036513417924, guid: fca891f7569244841a29511288b4185a,
        type: 3}
      propertyPath: m_AnchoredPosition.y
      value: 0
      objectReference: {fileID: 0}
    - target: {fileID: 8637148036513417924, guid: fca891f7569244841a29511288b4185a,
        type: 3}
      propertyPath: m_SizeDelta.x
      value: 256
      objectReference: {fileID: 0}
    - target: {fileID: 8637148036513417924, guid: fca891f7569244841a29511288b4185a,
        type: 3}
      propertyPath: m_SizeDelta.y
      value: 256
      objectReference: {fileID: 0}
    - target: {fileID: 8637148036513417924, guid: fca891f7569244841a29511288b4185a,
        type: 3}
      propertyPath: m_AnchorMin.x
      value: 0
      objectReference: {fileID: 0}
    - target: {fileID: 8637148036513417924, guid: fca891f7569244841a29511288b4185a,
        type: 3}
      propertyPath: m_AnchorMin.y
      value: 0
      objectReference: {fileID: 0}
    - target: {fileID: 8637148036513417924, guid: fca891f7569244841a29511288b4185a,
        type: 3}
      propertyPath: m_AnchorMax.x
      value: 0
      objectReference: {fileID: 0}
    - target: {fileID: 8637148036513417924, guid: fca891f7569244841a29511288b4185a,
        type: 3}
      propertyPath: m_AnchorMax.y
      value: 0
      objectReference: {fileID: 0}
    - target: {fileID: 8637148036513417924, guid: fca891f7569244841a29511288b4185a,
        type: 3}
      propertyPath: m_Pivot.x
      value: 0
      objectReference: {fileID: 0}
    - target: {fileID: 8637148036513417924, guid: fca891f7569244841a29511288b4185a,
        type: 3}
      propertyPath: m_Pivot.y
      value: 0
      objectReference: {fileID: 0}
    - target: {fileID: 8637148036513417925, guid: fca891f7569244841a29511288b4185a,
        type: 3}
      propertyPath: m_PreserveAspect
      value: 0
      objectReference: {fileID: 0}
    - target: {fileID: 8637148036513417931, guid: fca891f7569244841a29511288b4185a,
        type: 3}
      propertyPath: m_Name
      value: Sign Slot
      objectReference: {fileID: 0}
    - target: {fileID: 8637148037754284832, guid: fca891f7569244841a29511288b4185a,
        type: 3}
      propertyPath: m_AnchorMin.x
      value: 0.5
      objectReference: {fileID: 0}
    - target: {fileID: 8637148037754284832, guid: fca891f7569244841a29511288b4185a,
        type: 3}
      propertyPath: m_AnchorMin.y
      value: 0.5
      objectReference: {fileID: 0}
    - target: {fileID: 8637148037754284832, guid: fca891f7569244841a29511288b4185a,
        type: 3}
      propertyPath: m_AnchorMax.x
      value: 0.5
      objectReference: {fileID: 0}
    - target: {fileID: 8637148037754284832, guid: fca891f7569244841a29511288b4185a,
        type: 3}
      propertyPath: m_AnchorMax.y
      value: 0.5
      objectReference: {fileID: 0}
    - target: {fileID: 8637148037754284832, guid: fca891f7569244841a29511288b4185a,
        type: 3}
      propertyPath: m_SizeDelta.x
      value: 256
      objectReference: {fileID: 0}
    - target: {fileID: 8637148037754284832, guid: fca891f7569244841a29511288b4185a,
        type: 3}
      propertyPath: m_SizeDelta.y
      value: 256
      objectReference: {fileID: 0}
    m_RemovedComponents: []
  m_SourcePrefab: {fileID: 100100000, guid: fca891f7569244841a29511288b4185a, type: 3}
--- !u!224 &2318889576749534521 stripped
RectTransform:
  m_CorrespondingSourceObject: {fileID: 8637148036513417924, guid: fca891f7569244841a29511288b4185a,
    type: 3}
  m_PrefabInstance: {fileID: 6337419718258542589}
  m_PrefabAsset: {fileID: 0}
--- !u!1001 &6337419719853302661
PrefabInstance:
  m_ObjectHideFlags: 0
  serializedVersion: 2
  m_Modification:
    m_TransformParent: {fileID: 6337419717829874458}
    m_Modifications:
    - target: {fileID: 1737801898726932264, guid: fca891f7569244841a29511288b4185a,
        type: 3}
      propertyPath: sprite
      value: 
      objectReference: {fileID: 21300000, guid: f91512476f91249488a4d4baaa0daab0,
        type: 3}
    - target: {fileID: 1737801898726932264, guid: fca891f7569244841a29511288b4185a,
        type: 3}
      propertyPath: direction
      value: 2
      objectReference: {fileID: 0}
    - target: {fileID: 7640961926292896570, guid: fca891f7569244841a29511288b4185a,
        type: 3}
      propertyPath: m_Camera
      value: 
      objectReference: {fileID: 0}
    - target: {fileID: 8637148036513417924, guid: fca891f7569244841a29511288b4185a,
        type: 3}
      propertyPath: m_LocalPosition.x
      value: 0
      objectReference: {fileID: 0}
    - target: {fileID: 8637148036513417924, guid: fca891f7569244841a29511288b4185a,
        type: 3}
      propertyPath: m_LocalPosition.y
      value: 0
      objectReference: {fileID: 0}
    - target: {fileID: 8637148036513417924, guid: fca891f7569244841a29511288b4185a,
        type: 3}
      propertyPath: m_LocalPosition.z
      value: 0
      objectReference: {fileID: 0}
    - target: {fileID: 8637148036513417924, guid: fca891f7569244841a29511288b4185a,
        type: 3}
      propertyPath: m_LocalRotation.x
      value: 0
      objectReference: {fileID: 0}
    - target: {fileID: 8637148036513417924, guid: fca891f7569244841a29511288b4185a,
        type: 3}
      propertyPath: m_LocalRotation.y
      value: 0
      objectReference: {fileID: 0}
    - target: {fileID: 8637148036513417924, guid: fca891f7569244841a29511288b4185a,
        type: 3}
      propertyPath: m_LocalRotation.z
      value: 0
      objectReference: {fileID: 0}
    - target: {fileID: 8637148036513417924, guid: fca891f7569244841a29511288b4185a,
        type: 3}
      propertyPath: m_LocalRotation.w
      value: 1
      objectReference: {fileID: 0}
    - target: {fileID: 8637148036513417924, guid: fca891f7569244841a29511288b4185a,
        type: 3}
      propertyPath: m_RootOrder
      value: 1
      objectReference: {fileID: 0}
    - target: {fileID: 8637148036513417924, guid: fca891f7569244841a29511288b4185a,
        type: 3}
      propertyPath: m_LocalEulerAnglesHint.x
      value: 0
      objectReference: {fileID: 0}
    - target: {fileID: 8637148036513417924, guid: fca891f7569244841a29511288b4185a,
        type: 3}
      propertyPath: m_LocalEulerAnglesHint.y
      value: 0
      objectReference: {fileID: 0}
    - target: {fileID: 8637148036513417924, guid: fca891f7569244841a29511288b4185a,
        type: 3}
      propertyPath: m_LocalEulerAnglesHint.z
      value: 0
      objectReference: {fileID: 0}
    - target: {fileID: 8637148036513417924, guid: fca891f7569244841a29511288b4185a,
        type: 3}
      propertyPath: m_AnchoredPosition.x
      value: 0
      objectReference: {fileID: 0}
    - target: {fileID: 8637148036513417924, guid: fca891f7569244841a29511288b4185a,
        type: 3}
      propertyPath: m_AnchoredPosition.y
      value: 0
      objectReference: {fileID: 0}
    - target: {fileID: 8637148036513417924, guid: fca891f7569244841a29511288b4185a,
        type: 3}
      propertyPath: m_SizeDelta.x
      value: 256
      objectReference: {fileID: 0}
    - target: {fileID: 8637148036513417924, guid: fca891f7569244841a29511288b4185a,
        type: 3}
      propertyPath: m_SizeDelta.y
      value: 256
      objectReference: {fileID: 0}
    - target: {fileID: 8637148036513417924, guid: fca891f7569244841a29511288b4185a,
        type: 3}
      propertyPath: m_AnchorMin.x
      value: 1
      objectReference: {fileID: 0}
    - target: {fileID: 8637148036513417924, guid: fca891f7569244841a29511288b4185a,
        type: 3}
      propertyPath: m_AnchorMin.y
      value: 0
      objectReference: {fileID: 0}
    - target: {fileID: 8637148036513417924, guid: fca891f7569244841a29511288b4185a,
        type: 3}
      propertyPath: m_AnchorMax.x
      value: 1
      objectReference: {fileID: 0}
    - target: {fileID: 8637148036513417924, guid: fca891f7569244841a29511288b4185a,
        type: 3}
      propertyPath: m_AnchorMax.y
      value: 0
      objectReference: {fileID: 0}
    - target: {fileID: 8637148036513417924, guid: fca891f7569244841a29511288b4185a,
        type: 3}
      propertyPath: m_Pivot.x
      value: 1
      objectReference: {fileID: 0}
    - target: {fileID: 8637148036513417924, guid: fca891f7569244841a29511288b4185a,
        type: 3}
      propertyPath: m_Pivot.y
      value: 0
      objectReference: {fileID: 0}
    - target: {fileID: 8637148036513417925, guid: fca891f7569244841a29511288b4185a,
        type: 3}
      propertyPath: m_PreserveAspect
      value: 0
      objectReference: {fileID: 0}
    - target: {fileID: 8637148036513417931, guid: fca891f7569244841a29511288b4185a,
        type: 3}
      propertyPath: m_Name
      value: Sign Slot (1)
      objectReference: {fileID: 0}
    - target: {fileID: 8637148037754284832, guid: fca891f7569244841a29511288b4185a,
        type: 3}
      propertyPath: m_AnchorMin.x
      value: 0.5
      objectReference: {fileID: 0}
    - target: {fileID: 8637148037754284832, guid: fca891f7569244841a29511288b4185a,
        type: 3}
      propertyPath: m_AnchorMin.y
      value: 0.5
      objectReference: {fileID: 0}
    - target: {fileID: 8637148037754284832, guid: fca891f7569244841a29511288b4185a,
        type: 3}
      propertyPath: m_AnchorMax.x
      value: 0.5
      objectReference: {fileID: 0}
    - target: {fileID: 8637148037754284832, guid: fca891f7569244841a29511288b4185a,
        type: 3}
      propertyPath: m_AnchorMax.y
      value: 0.5
      objectReference: {fileID: 0}
    - target: {fileID: 8637148037754284832, guid: fca891f7569244841a29511288b4185a,
        type: 3}
      propertyPath: m_SizeDelta.x
      value: 256
      objectReference: {fileID: 0}
    - target: {fileID: 8637148037754284832, guid: fca891f7569244841a29511288b4185a,
        type: 3}
      propertyPath: m_SizeDelta.y
      value: 256
      objectReference: {fileID: 0}
    m_RemovedComponents: []
  m_SourcePrefab: {fileID: 100100000, guid: fca891f7569244841a29511288b4185a, type: 3}
--- !u!224 &2318889577272650049 stripped
RectTransform:
  m_CorrespondingSourceObject: {fileID: 8637148036513417924, guid: fca891f7569244841a29511288b4185a,
    type: 3}
  m_PrefabInstance: {fileID: 6337419719853302661}
  m_PrefabAsset: {fileID: 0}
